{
  "uid" : "c0a3bd3c4419820",
  "name" : "When I click on ALLOW PHOTO ACCESS button",
  "title" : "When I click on ALLOW PHOTO ACCESS button",
  "time" : {
    "start" : 1440063615594,
    "stop" : 1440063615594,
    "duration" : 0
  },
  "summary" : {
    "attachments" : 0,
    "steps" : 0
  },
  "failure" : null,
  "description" : null,
  "severity" : "NORMAL",
  "status" : "PASSED",
  "steps" : [ ],
  "attachments" : [ ],
  "labels" : [ {
    "name" : "host",
    "value" : "default"
  }, {
    "name" : "thread",
    "value" : "69457@localhost.main"
  }, {
    "name" : "story",
    "value" : "Pass allow photo screen"
  }, {
    "name" : "feature",
    "value" : "Allow Photo"
  }, {
    "name" : "framework",
    "value" : "CucumberJVM"
  }, {
    "name" : "language",
    "value" : "JAVA"
  } ],
  "parameters" : [ ]
}