{
  "testCases" : [ {
    "uid" : "1b3c72f98009a9f8",
    "name" : "Given I arrive at AllowPhoto page",
    "title" : "Given I arrive at allow photo page",
    "time" : {
      "start" : 1440063612976,
      "stop" : 1440063612979,
      "duration" : 3
    },
    "severity" : "NORMAL",
    "status" : "PASSED"
  }, {
    "uid" : "c0a3bd3c4419820",
    "name" : "When I click on ALLOW PHOTO ACCESS button",
    "title" : "When I click on ALLOW PHOTO ACCESS button",
    "time" : {
      "start" : 1440063615594,
      "stop" : 1440063615594,
      "duration" : 0
    },
    "severity" : "NORMAL",
    "status" : "PASSED"
  }, {
    "uid" : "a166e0588c13b42c",
    "name" : "Then I see Start page",
    "title" : "Then I see start page",
    "time" : {
      "start" : 1440063616767,
      "stop" : 1440063616767,
      "duration" : 0
    },
    "severity" : "NORMAL",
    "status" : "PASSED"
  }, {
    "uid" : "3217f8498a4c6f25",
    "name" : "Given I arrive at Start page",
    "title" : "Given I arrive at start page",
    "time" : {
      "start" : 1440063643608,
      "stop" : 1440063643608,
      "duration" : 0
    },
    "severity" : "NORMAL",
    "status" : "PASSED"
  }, {
    "uid" : "7e1491adb374ff95",
    "name" : "When I click on LOG IN button on Start page",
    "title" : "When I click on LOG IN button on start page",
    "time" : {
      "start" : 1440063643980,
      "stop" : 1440063643980,
      "duration" : 0
    },
    "severity" : "NORMAL",
    "status" : "PASSED"
  }, {
    "uid" : "82daa79217435339",
    "name" : "Then I see LoginType page",
    "title" : "Then I see login type page",
    "time" : {
      "start" : 1440063643993,
      "stop" : 1440063644011,
      "duration" : 18
    },
    "severity" : "NORMAL",
    "status" : "FAILED"
  } ]
}